tezt/_regressions/protocol.alpha.contract.out

./tezos-codec encode alpha.contract from '"tz1KqTpEZ7Yob7QbPE4Hy4Wo8fHG8LhKxZSx"'
000002298c03ed7d454a101eb7022bc95f7e5f41ac78

./tezos-codec decode alpha.contract from 000002298c03ed7d454a101eb7022bc95f7e5f41ac78
"tz1KqTpEZ7Yob7QbPE4Hy4Wo8fHG8LhKxZSx"

./tezos-codec encode alpha.contract from '"KT1DieU51jzXLerQx5AqMCiLC1SsCeM8yRat"'
0138560805b4c8d7b7fbbafad5c59dbfa3878ca70500

./tezos-codec decode alpha.contract from 0138560805b4c8d7b7fbbafad5c59dbfa3878ca70500
"KT1DieU51jzXLerQx5AqMCiLC1SsCeM8yRat"
